<?xml version="1.0" encoding="UTF-8" standalone="no"?>
<svg
   xmlns:osb="http://www.openswatchbook.org/uri/2009/osb"
   xmlns:dc="http://purl.org/dc/elements/1.1/"
   xmlns:cc="http://creativecommons.org/ns#"
   xmlns:rdf="http://www.w3.org/1999/02/22-rdf-syntax-ns#"
   xmlns:svg="http://www.w3.org/2000/svg"
   xmlns="http://www.w3.org/2000/svg"
   xmlns:sodipodi="http://sodipodi.sourceforge.net/DTD/sodipodi-0.dtd"
   xmlns:inkscape="http://www.inkscape.org/namespaces/inkscape"
   inkscape:export-ydpi="96"
   inkscape:export-xdpi="96"
   inkscape:export-filename="C:\Users\uriehm\git\loopdoc-ui\modules\logo\images\svg\logo_ribbon.png"
   width="227.11792mm"
   height="121.10525mm"
   viewBox="0 0 227.11792 121.10525"
   version="1.1"
   id="svg8"
   inkscape:version="1.0beta2 (998e94e, 2020-02-11)"
   sodipodi:docname="logo_ribbon.svg">
  <defs
     id="defs2">
    <linearGradient
       id="linearGradient3102"
       osb:paint="solid">
      <stop
         style="stop-color:#000000;stop-opacity:1;"
         offset="0"
         id="stop3100" />
    </linearGradient>
  </defs>
  <sodipodi:namedview
     id="base"
     pagecolor="#ffffff"
     bordercolor="#666666"
     borderopacity="1.0"
     inkscape:pageopacity="0.0"
     inkscape:pageshadow="2"
     inkscape:zoom="1.5563869"
     inkscape:cx="429.1992"
     inkscape:cy="228.8603"
     inkscape:document-units="mm"
     inkscape:current-layer="layer1"
     inkscape:document-rotation="0"
     showgrid="false"
     inkscape:snap-smooth-nodes="true"
     inkscape:object-paths="true"
     inkscape:snap-intersection-paths="true"
     inkscape:window-width="1920"
     inkscape:window-height="1017"
     inkscape:window-x="-8"
     inkscape:window-y="-8"
     inkscape:window-maximized="1" />
  <metadata
     id="metadata5">
    <rdf:RDF>
      <cc:Work
         rdf:about="">
        <dc:format>image/svg+xml</dc:format>
        <dc:type
           rdf:resource="http://purl.org/dc/dcmitype/StillImage" />
        <dc:title />
      </cc:Work>
    </rdf:RDF>
  </metadata>
  <g
     inkscape:label="Layer 1"
     inkscape:groupmode="layer"
     id="layer1"
     transform="translate(-25.602926,-64.540558)">
    <path
       id="rect849"
       style="opacity:1;fill:#000000;fill-rule:evenodd;stroke:#ffffff;stroke-width:1;stroke-linecap:round;stroke-miterlimit:4;stroke-dasharray:none;stroke-opacity:1;stop-color:#000000"
       d="M 68.431957,120.91557 H 48.225655 c -5.942994,0 -10.760732,-4.78916 -10.760746,-10.69688 l -2.7e-5,-45.178132 H 26.102926 l 1.4e-5,45.178132 c 1.4e-5,12.14553 9.904679,21.99142 22.122715,21.99142 h 20.206302 m 0,0 c 12.218022,0 22.122701,-9.84589 22.122688,-21.99143 1.3e-5,-12.145532 -9.904666,-21.991437 -22.122688,-21.991424 -0.01697,-1.3e-5 -0.03395,-1.3e-5 -0.05092,0 -12.198132,0.0279 -22.071807,9.865656 -22.071724,21.991424 2.6e-5,3.7439 0.961634,7.42578 2.793625,10.69689 H 68.432 c -5.942994,0 -10.760732,-4.78916 -10.760732,-10.69689 0,-5.90772 4.817738,-10.696878 10.760732,-10.696878 5.94298,0 10.760732,4.789158 10.760732,10.696878 0,5.90773 -4.817752,10.69689 -10.760732,10.69689"
       inkscape:connector-curvature="0"
       sodipodi:nodetypes="csccccscccccsccsssc" />
    <path
       id="rect849-8"
       style="opacity:1;fill:#000000;fill-rule:evenodd;stroke:#ffffff;stroke-width:1;stroke-linecap:round;stroke-miterlimit:4;stroke-dasharray:none;stroke-opacity:1;stop-color:#000000"
       d="m 136.47176,120.91555 c -0.30639,0.54566 -0.62649,1.08301 -0.97702,1.59877 -0.39755,0.58498 -0.82277,1.14979 -1.27363,1.69285 -0.45085,0.54306 -0.92727,1.06442 -1.4277,1.56188 -0.50042,0.49746 -1.02489,0.97106 -1.5712,1.41923 -0.5463,0.44817 -1.11449,0.87089 -1.70296,1.26609 -0.58846,0.3952 -1.19722,0.76292 -1.82413,1.10147 -0.62693,0.33855 -1.27215,0.64796 -1.93383,0.92616 -0.66168,0.27821 -1.33974,0.5252 -2.03246,0.73938 -0.69273,0.21419 -1.4,0.39539 -2.12007,0.54188 -0.72007,0.14647 -1.45292,0.25831 -2.19662,0.33338 -0.74371,0.075 -1.4983,0.11339 -2.26193,0.11339 h 48.71849 c 12.21804,3e-5 22.12272,-9.84588 22.1227,-21.99142 2e-5,-12.145531 -9.90466,-21.991436 -22.1227,-21.991422 -12.21802,0 -22.12269,9.845891 -22.12269,21.991422 v 10.69688 h 11.36197 v -10.69688 c -1e-5,-5.90772 4.81774,-10.696877 10.76072,-10.696877 5.94299,0 10.76075,4.789157 10.76073,10.696877 0,5.90773 -4.81774,10.69688 -10.76073,10.69688 h -29.39694"
       inkscape:connector-curvature="0"
       sodipodi:nodetypes="cssssssssssccsssccssssc" />
    <path
       id="path1050"
       style="opacity:1;fill:#000000;fill-rule:evenodd;stroke:#ffffff;stroke-width:1;stroke-linecap:round;stroke-miterlimit:4;stroke-dasharray:none;stroke-opacity:1;stop-color:#000000"
       d="m 117.15021,120.91555 c -5.94298,2e-5 -10.76073,-4.78914 -10.76071,-10.69687 -2e-5,-5.90772 4.81773,-10.696878 10.76071,-10.696878 5.943,0 10.76074,4.789158 10.76074,10.696878 0,5.90773 -4.81774,10.69689 -10.76074,10.69687 H 87.753491 c -0.306382,0.54566 -0.626479,1.08301 -0.977007,1.59877 -0.397562,0.58498 -0.822789,1.14979 -1.273628,1.69285 -0.450852,0.54306 -0.927275,1.06442 -1.427708,1.56188 -0.500433,0.49746 -1.024903,0.97106 -1.571193,1.41923 -0.546304,0.44817 -1.114497,0.87089 -1.702962,1.26609 -0.588465,0.3952 -1.197217,0.76292 -1.824148,1.10147 -0.626917,0.33855 -1.272135,0.64796 -1.933822,0.92616 -0.661672,0.27821 -1.33973,0.5252 -2.032463,0.73938 -0.692718,0.21419 -1.399988,0.39539 -2.120057,0.54188 -0.720069,0.14647 -1.452923,0.25831 -2.196632,0.33338 -0.743696,0.075 -1.498287,0.11339 -2.261914,0.11339 h 48.718253 c 12.21804,1e-5 22.12271,-9.84589 22.12271,-21.99142 1e-5,-12.145531 -9.90467,-21.991436 -22.12271,-21.991422 -0.017,-1.4e-5 -0.0339,-1.4e-5 -0.0509,0 -12.19812,0.0279 -22.071767,9.865656 -22.071726,21.991422 6.8e-5,3.74388 0.961634,7.42577 2.793639,10.69688 z"
       inkscape:connector-curvature="0"
       sodipodi:nodetypes="csssccssssssssssccsscccc" />
    <path
       inkscape:connector-curvature="0"
       id="path1146"
       style="opacity:1;fill:#000000;fill-rule:evenodd;stroke:#ffffff;stroke-width:1;stroke-linecap:round;stroke-miterlimit:4;stroke-dasharray:none;stroke-opacity:1;stop-color:#000000"
       d="m 230.36061,141.16296 a 21.991499,21.991499 0 0 0 -21.92992,21.99142 21.991499,21.991499 0 0 0 21.99142,21.99142 21.991499,21.991499 0 0 0 21.71185,-18.49809 h -12.22819 a 10.107,10.107 0 0 1 -9.48366,6.61355 10.107,10.107 0 0 1 -10.10688,-10.10688 10.107,10.107 0 0 1 10.10688,-10.10688 10.107,10.107 0 0 1 9.48366,6.61355 h 12.22819 a 21.991499,21.991499 0 0 0 -21.71185,-18.49809 21.991499,21.991499 0 0 0 -0.0615,0 z" />
    <path
       sodipodi:nodetypes="csssccccssssccc"
       inkscape:connector-curvature="0"
       id="path1109"
       style="opacity:1;fill:#000000;fill-rule:evenodd;stroke:#ffffff;stroke-width:1;stroke-linecap:round;stroke-miterlimit:4;stroke-dasharray:none;stroke-opacity:1;stop-color:#000000"
       d="m 155.10801,141.16288 h 26.59542 c 12.21804,0 22.12271,9.84589 22.12271,21.99142 1e-5,12.14553 -9.90467,21.99144 -22.12271,21.99142 -0.017,2e-5 -0.0339,2e-5 -0.0509,0 -12.19812,-0.0279 -22.07177,-9.86565 -22.07173,-21.99142 7e-5,-3.74388 0.96164,-7.42577 2.79364,-10.69688 l 19.32899,-6e-5 v 0 c -5.94298,-2e-5 -10.76073,4.78914 -10.76071,10.69687 -2e-5,5.90772 4.81773,10.69688 10.76071,10.69688 5.943,0 10.76074,-4.78916 10.76074,-10.69688 0,-5.90773 -4.81774,-10.69689 -10.76074,-10.69687 h -26.59559 z" />
    <path
       id="path3121"
       style="opacity:1;fill:#000000;fill-rule:evenodd;stroke:#ffffff;stroke-width:1;stroke-linecap:round;stroke-miterlimit:4;stroke-dasharray:none;stroke-opacity:1;stop-color:#000000"
       d="m 201.02484,152.45737 c -0.30639,-0.54566 -0.62615,-1.08311 -0.97668,-1.59887 -0.39755,-0.58498 -0.82297,-1.14986 -1.27383,-1.69292 -0.45085,-0.54306 -0.92738,-1.0642 -1.42781,-1.56166 -0.50042,-0.49746 -1.02466,-0.97087 -1.57097,-1.41904 -0.5463,-0.44817 -1.11478,-0.87138 -1.70325,-1.26658 -0.58846,-0.3952 -1.19727,-0.76268 -1.82418,-1.10123 -0.62693,-0.33855 -1.27205,-0.64784 -1.93373,-0.92604 -0.66168,-0.27821 -1.33972,-0.52531 -2.03244,-0.73949 -0.69273,-0.21419 -1.39969,-0.3956 -2.11976,-0.54209 -0.72007,-0.14647 -1.45307,-0.25824 -2.19677,-0.33331 -0.74371,-0.075 -1.49825,-0.11317 -2.26188,-0.11317 16.26541,-3e-5 32.53081,-7e-5 48.79622,-1e-4 -0.76362,0 -1.51821,0.0384 -2.26191,0.11339 -0.74371,0.0751 -1.47656,0.18691 -2.19663,0.33338 -0.72007,0.14649 -1.42734,0.32769 -2.12006,0.54188 -0.69273,0.21418 -1.37079,0.46117 -2.03246,0.73938 -0.66169,0.2782 -1.30691,0.58761 -1.93383,0.92616 -0.62693,0.33855 -1.23568,0.70627 -1.82414,1.10147 -0.58847,0.3952 -1.15666,0.81792 -1.70297,1.26609 -0.54629,0.44817 -1.07076,0.92177 -1.57119,1.41923 -0.50043,0.49746 -0.97685,1.01882 -1.42771,1.56188 -0.45083,0.54306 -0.87606,1.10787 -1.27362,1.69285 -0.35053,0.51576 -0.67063,1.05311 -0.97701,1.59877 -3.38446,1e-5 -6.76893,1e-5 -10.15339,2e-5 z"
       inkscape:connector-curvature="0"
       sodipodi:nodetypes="csssssssssccccssssssssscc" />
    <path
       id="path3128"
       style="opacity:1;fill:#000000;fill-rule:evenodd;stroke:#ffffff;stroke-width:3.77953;stroke-linecap:round;stroke-miterlimit:4;stroke-dasharray:none;stroke-opacity:1;stop-color:#000000"
       d="m 543.29102,533.5293 h -40.66993 c -46.17842,-1.2e-4 -83.61335,37.21278 -83.61328,83.11718 -7e-5,45.90437 37.43486,83.11727 83.61328,83.11719 46.17835,0 83.61328,-37.21282 83.61329,-83.11719 V 499.69146 h -42.94336 v 116.95502 c 0,22.32839 -18.20827,40.42969 -40.66993,40.42969 -22.46169,0 -40.66999,-18.1013 -40.66992,-40.42969 0,-22.32842 18.20823,-40.42968 40.66992,-40.42968 h 40.66993 z"
       transform="scale(0.26458333)"
       inkscape:connector-curvature="0"
       sodipodi:nodetypes="cssssccsssscc" />
  </g>
</svg>
